lat1,lon1,lat2,lon2,distance,bearing,avg(distance),stdev(distance),min(distance),max(distance)
35.76671,-78.70138,35.76684,-78.70135,14.70656936,10,23.81488049,12.58223934,11.32911138,48.94375598
35.76684,-78.70135,35.7668,-78.701,31.89003879,98,,,,
35.7668,-78.701,35.76677,-78.70068,29.06371365,96,,,,
35.76677,-78.70068,35.76673,-78.70028,36.362613,97,,,,
35.76673,-78.70028,35.76671,-78.7001,16.39187026,97,,,,
35.76671,-78.7001,35.76671,-78.69996,12.63135422,89,,,,
35.76671,-78.69996,35.76671,-78.69969,24.36046885,89,,,,
35.76671,-78.69969,35.76672,-78.69952,15.37832514,85,,,,
35.76672,-78.69952,35.76675,-78.69932,18.35053636,79,,,,
35.76675,-78.69932,35.76678,-78.69916,14.81623697,76,,,,
35.76678,-78.69916,35.76681,-78.699,14.81623167,76,,,,
35.76681,-78.699,35.76684,-78.69888,11.32911138,72,,,,
35.76684,-78.69888,35.7669,-78.69868,19.23862576,69,,,,
35.7669,-78.69868,35.76705,-78.69817,48.94375598,70,,,,
35.7669,-78.69868,35.76705,-78.69817,48.94375598,70,,,,
